{
    "modelName": "New model",
    "collections": [
        {
            "collectionName": "New table",
            "type": "object",
            "properties": [
                {
                    "name": "New column(1)",
                    "hackoladeMeta": {},
                    "isActivated": true,
                    "primaryKey": false,
                    "mode": "string",
                    "subtype": "string",
                    "childType": "text",
                    "type": "string",
                    "compositeKey": [
                        "compositePartitionKey",
                        "compositeClusteringKey"
                    ],
                    "compositePartitionKey": false,
                    "compositeClusteringKey": false,
                    "GUID": "2350c4e0-7916-11ec-952f-6fcb7291768a",
                    "error": {
                        "name": true,
                        "code": false
                    },
                    "foreignCollection": "",
                    "foreignField": []
                },
                {
                    "name": "New column",
                    "hackoladeMeta": {},
                    "isActivated": true,
                    "primaryKey": false,
                    "mode": "string",
                    "subtype": "string",
                    "childType": "text",
                    "type": "string",
                    "compositeKey": [
                        "compositePartitionKey",
                        "compositeClusteringKey"
                    ],
                    "compositePartitionKey": true,
                    "compositeClusteringKey": false,
                    "GUID": "1ec3e9c0-7916-11ec-952f-6fcb7291768a",
                    "error": {
                        "name": true,
                        "code": false
                    }
                },
                {
                    "name": "New column(2)",
                    "hackoladeMeta": {},
                    "isActivated": true,
                    "exclusiveMinimum": false,
                    "exclusiveMaximum": false,
                    "primaryKey": false,
                    "mode": "int",
                    "childType": "numeric",
                    "type": "numeric",
                    "compositeKey": [
                        "compositePartitionKey",
                        "compositeClusteringKey"
                    ],
                    "compositePartitionKey": false,
                    "compositeClusteringKey": false,
                    "GUID": "27b5ccb0-7916-11ec-952f-6fcb7291768a",
                    "error": {
                        "name": true,
                        "code": false
                    }
                }
            ],
            "definitions": {
                "type": "definitions",
                "properties": [],
                "GUID": "1d883570-7916-11ec-952f-6fcb7291768a"
            },
            "isActivated": true,
            "additionalProperties": false,
            "collectionUsers": [],
            "tableIfNotExists": true,
            "GUID": "1d7fd100-7916-11ec-952f-6fcb7291768a",
            "hackoladeMeta": {
                "validationErrors": {
                    "collectionName": true
                }
            },
            "compositePartitionKey": [
                {
                    "keyId": "1ec3e9c0-7916-11ec-952f-6fcb7291768a",
                    "type": ""
                }
            ],
            "using": "delta"
        }
    ],
    "buckets": [],
    "views": [],
    "relationships": [],
    "users": [],
    "diagramViews": [],
    "idToNameHashTable": {
        "1d7fd100-7916-11ec-952f-6fcb7291768a": "New table",
        "1ec3e9c0-7916-11ec-952f-6fcb7291768a": "New column",
        "2350c4e0-7916-11ec-952f-6fcb7291768a": "New column(1)",
        "27b5ccb0-7916-11ec-952f-6fcb7291768a": "New column(2)"
    },
    "definitions": {
        "type": "definitions",
        "properties": [],
        "GUID": "1cd5fc71-7916-11ec-952f-6fcb7291768a"
    },
    "polyglotDefinitions": {
        "type": "polyglotDefinitions",
        "properties": [],
        "GUID": "1cd5fc73-7916-11ec-952f-6fcb7291768a"
    },
    "externalDefinitions": {
        "type": "externalDefinitions",
        "properties": [],
        "GUID": "1cd5fc72-7916-11ec-952f-6fcb7291768a"
    },
    "sources": [],
    "decorativeSymbols": [],
    "dbVersion": "Runtime 8",
    "dbVendor": "Delta Lake",
    "appTarget": "DeltaLake",
    "creationTS": "2022-01-19T10:54:02.167Z",
    "GUID": "1cd5fc70-7916-11ec-952f-6fcb7291768a",
    "isLineageEnabled": false,
    "lastModifTS": "2022-01-19T11:10:41.191Z",
    "persistenceSchemaVersion": "5",
    "isCreatedByPlugin": true,
    "pluginInformation": {
        "pluginName": "DeltaLake",
        "pluginVersion": "0.1.26",
        "pluginEngineVersion": "1.0.0"
    },
    "applicationInformation": {
        "version": "5.4.1"
    },
    "hackoladeMeta": {},
    "settings": {
        "centralPane": {
            "dbLevel": {
                "erd": [
                    {
                        "GUID": "1d7fd100-7916-11ec-952f-6fcb7291768a",
                        "x": 270,
                        "y": 266,
                        "width": 233,
                        "height": 87,
                        "color": {}
                    }
                ],
                "buckets": [],
                "collapsedNodes": [],
                "activeRelationship": "",
                "activeRelationshipFields": {
                    "childField": [],
                    "parentField": []
                },
                "selectedCollections": [],
                "displayColorPicker": false,
                "graphView": {
                    "erd": [],
                    "buckets": [],
                    "decorativeSymbols": [],
                    "forceLayout": true,
                    "defaultLinkLength": 300
                },
                "diagramViews": [],
                "decorativeSymbols": [],
                "nestedCollectionsLayout": "horizontal",
                "options": []
            },
            "collectionLevel": {},
            "changed": false
        },
        "dtDiagram": {
            "collapsedNodes": [],
            "shouldDistributeCollections": false
        }
    }
}